EESchema Schematic File Version 2
LIBS:power
LIBS:device
LIBS:transistors
LIBS:conn
LIBS:linear
LIBS:regul
LIBS:74xx
LIBS:cmos4000
LIBS:adc-dac
LIBS:memory
LIBS:xilinx
LIBS:microcontrollers
LIBS:dsp
LIBS:microchip
LIBS:analog_switches
LIBS:motorola
LIBS:texas
LIBS:intel
LIBS:audio
LIBS:interface
LIBS:digital-audio
LIBS:philips
LIBS:display
LIBS:cypress
LIBS:siliconi
LIBS:opto
LIBS:atmel
LIBS:contrib
LIBS:valves
LIBS:custom
LIBS:particle-boards
LIBS:HeatControl-cache
EELAYER 25 0
EELAYER END
$Descr A4 11693 8268
encoding utf-8
Sheet 1 1
Title ""
Date ""
Rev ""
Comp ""
Comment1 ""
Comment2 ""
Comment3 ""
Comment4 ""
$EndDescr
$Comp
L +3.3V #PWR1
U 1 1 58572034
P 1300 1150
F 0 "#PWR1" H 1300 1000 50  0001 C CNN
F 1 "+3.3V" H 1250 1300 50  0000 C CNN
F 2 "" H 1300 1150 50  0000 C CNN
F 3 "" H 1300 1150 50  0000 C CNN
	1    1300 1150
	1    0    0    -1  
$EndComp
$Comp
L +5V #PWR3
U 1 1 5857225C
P 1500 1150
F 0 "#PWR3" H 1500 1000 50  0001 C CNN
F 1 "+5V" H 1500 1290 50  0000 C CNN
F 2 "" H 1500 1150 50  0000 C CNN
F 3 "" H 1500 1150 50  0000 C CNN
	1    1500 1150
	1    0    0    -1  
$EndComp
$Comp
L PHOTON U4
U 1 1 585721D8
P 2550 1900
F 0 "U4" H 2550 1300 60  0000 C CNN
F 1 "PHOTON" H 2550 2600 60  0000 C CNN
F 2 "particle:photon" H 2550 2000 60  0001 C CNN
F 3 "" H 2550 2000 60  0000 C CNN
	1    2550 1900
	1    0    0    -1  
$EndComp
Text GLabel 3950 2100 2    60   Input ~ 0
sense_3
Text GLabel 3450 2000 2    60   Input ~ 0
sense_2
Text GLabel 3950 1900 2    60   Input ~ 0
sense_1
$Comp
L R R1
U 1 1 58572F5F
P 1600 4650
F 0 "R1" V 1680 4650 50  0000 C CNN
F 1 "10K" V 1600 4650 50  0000 C CNN
F 2 "Resistors_SMD:R_0805_HandSoldering" V 1530 4650 50  0001 C CNN
F 3 "" H 1600 4650 50  0000 C CNN
	1    1600 4650
	0    1    1    0   
$EndComp
$Comp
L R R2
U 1 1 58572FAA
P 1600 5450
F 0 "R2" V 1680 5450 50  0000 C CNN
F 1 "10K" V 1600 5450 50  0000 C CNN
F 2 "Resistors_SMD:R_0805_HandSoldering" V 1530 5450 50  0001 C CNN
F 3 "" H 1600 5450 50  0000 C CNN
	1    1600 5450
	0    1    1    0   
$EndComp
$Comp
L R R3
U 1 1 58572FE8
P 1600 6250
F 0 "R3" V 1680 6250 50  0000 C CNN
F 1 "10K" V 1600 6250 50  0000 C CNN
F 2 "Resistors_SMD:R_0805_HandSoldering" V 1530 6250 50  0001 C CNN
F 3 "" H 1600 6250 50  0000 C CNN
	1    1600 6250
	0    1    1    0   
$EndComp
$Comp
L R R4
U 1 1 5857342F
P 2950 4200
F 0 "R4" V 3030 4200 50  0000 C CNN
F 1 "2K" V 2950 4200 50  0000 C CNN
F 2 "Resistors_SMD:R_0805_HandSoldering" V 2880 4200 50  0001 C CNN
F 3 "" H 2950 4200 50  0000 C CNN
	1    2950 4200
	1    0    0    -1  
$EndComp
$Comp
L R R5
U 1 1 58573487
P 2950 5000
F 0 "R5" V 3030 5000 50  0000 C CNN
F 1 "2K" V 2950 5000 50  0000 C CNN
F 2 "Resistors_SMD:R_0805_HandSoldering" V 2880 5000 50  0001 C CNN
F 3 "" H 2950 5000 50  0000 C CNN
	1    2950 5000
	1    0    0    -1  
$EndComp
$Comp
L R R6
U 1 1 585734E7
P 2950 5800
F 0 "R6" V 3030 5800 50  0000 C CNN
F 1 "2K" V 2950 5800 50  0000 C CNN
F 2 "Resistors_SMD:R_0805_HandSoldering" V 2880 5800 50  0001 C CNN
F 3 "" H 2950 5800 50  0000 C CNN
	1    2950 5800
	1    0    0    -1  
$EndComp
$Comp
L +3.3V #PWR7
U 1 1 58573C64
P 2950 4050
F 0 "#PWR7" H 2950 3900 50  0001 C CNN
F 1 "+3.3V" H 2950 4190 50  0000 C CNN
F 2 "" H 2950 4050 50  0000 C CNN
F 3 "" H 2950 4050 50  0000 C CNN
	1    2950 4050
	1    0    0    -1  
$EndComp
$Comp
L +3.3V #PWR8
U 1 1 58573CA2
P 2950 4850
F 0 "#PWR8" H 2950 4700 50  0001 C CNN
F 1 "+3.3V" H 2950 4990 50  0000 C CNN
F 2 "" H 2950 4850 50  0000 C CNN
F 3 "" H 2950 4850 50  0000 C CNN
	1    2950 4850
	1    0    0    -1  
$EndComp
$Comp
L +3.3V #PWR9
U 1 1 58573CE0
P 2950 5650
F 0 "#PWR9" H 2950 5500 50  0001 C CNN
F 1 "+3.3V" H 2950 5790 50  0000 C CNN
F 2 "" H 2950 5650 50  0000 C CNN
F 3 "" H 2950 5650 50  0000 C CNN
	1    2950 5650
	1    0    0    -1  
$EndComp
Text GLabel 3350 4450 2    60   Output ~ 0
sense_1
Text GLabel 3350 5250 2    60   Output ~ 0
sense_2
Text GLabel 3350 6050 2    60   Output ~ 0
sense_3
Text GLabel 1350 4650 0    60   BiDi ~ 0
C_1
Text GLabel 1350 4450 0    60   BiDi ~ 0
W_1
Text GLabel 1350 5450 0    60   BiDi ~ 0
C_2
Text GLabel 1350 5250 0    60   BiDi ~ 0
W_2
Text GLabel 1350 6250 0    60   BiDi ~ 0
C_3
Text GLabel 1350 6050 0    60   BiDi ~ 0
W_3
Text GLabel 7950 1150 2    60   BiDi ~ 0
W_1
Text GLabel 7650 1250 2    60   BiDi ~ 0
R_1
Text GLabel 7950 1700 2    60   BiDi ~ 0
W_2
Text GLabel 7650 1800 2    60   BiDi ~ 0
R_2
Text GLabel 7950 2200 2    60   BiDi ~ 0
W_3
Text GLabel 7650 2300 2    60   BiDi ~ 0
R_3
$Comp
L Relay_EC2/EE2 U5
U 1 1 5857A180
P 8850 4150
F 0 "U5" H 8850 4500 60  0000 C CNN
F 1 "EE2-3TNU-L" H 8850 3850 60  0000 C CNN
F 2 "custom:EE2_NU" H 8850 4150 60  0001 C CNN
F 3 "" H 8850 4150 60  0001 C CNN
	1    8850 4150
	1    0    0    1   
$EndComp
$Comp
L Relay_EC2/EE2 U6
U 1 1 5857A285
P 8850 4950
F 0 "U6" H 8850 5300 60  0000 C CNN
F 1 "EE2-3TNU-L" H 8850 4650 60  0000 C CNN
F 2 "custom:EE2_NU" H 8850 4950 60  0001 C CNN
F 3 "" H 8850 4950 60  0001 C CNN
	1    8850 4950
	1    0    0    1   
$EndComp
$Comp
L Relay_EC2/EE2 U7
U 1 1 5857A2DD
P 8850 5750
F 0 "U7" H 8850 6100 60  0000 C CNN
F 1 "EE2-3TNU-L" H 8850 5450 60  0000 C CNN
F 2 "custom:EE2_NU" H 8850 5750 60  0001 C CNN
F 3 "" H 8850 5750 60  0001 C CNN
	1    8850 5750
	1    0    0    1   
$EndComp
Text GLabel 9900 4250 2    60   BiDi ~ 0
R_1
Text GLabel 9450 4150 2    60   BiDi ~ 0
W_1
Text GLabel 9900 5050 2    60   BiDi ~ 0
R_2
Text GLabel 9450 4950 2    60   BiDi ~ 0
W_2
Text GLabel 9900 5850 2    60   BiDi ~ 0
R_3
Text GLabel 9450 5750 2    60   BiDi ~ 0
W_3
Text GLabel 5400 4050 0    60   Input ~ 0
set_1
Text GLabel 5800 3950 0    60   Input ~ 0
reset_1
Text GLabel 5400 4250 0    60   Input ~ 0
set_2
Text GLabel 5800 4150 0    60   Input ~ 0
reset_2
Text GLabel 5400 4450 0    60   Input ~ 0
set_3
Text GLabel 5800 4350 0    60   Input ~ 0
reset_3
$Comp
L LTV-814 U1
U 1 1 585851A9
P 2150 4550
F 0 "U1" H 1950 4750 50  0000 L CNN
F 1 "SFH620A" H 2150 4750 50  0000 L CNN
F 2 "Opto-Devices:Optocoupler_SMD_LTV-817S" H 1950 4350 50  0001 L CIN
F 3 "" H 2175 4550 50  0000 L CNN
	1    2150 4550
	1    0    0    -1  
$EndComp
$Comp
L LTV-814 U2
U 1 1 58585250
P 2150 5350
F 0 "U2" H 1950 5550 50  0000 L CNN
F 1 "SFH620A" H 2150 5550 50  0000 L CNN
F 2 "Opto-Devices:Optocoupler_SMD_LTV-817S" H 1950 5150 50  0001 L CIN
F 3 "" H 2175 5350 50  0000 L CNN
	1    2150 5350
	1    0    0    -1  
$EndComp
$Comp
L LTV-814 U3
U 1 1 585852FC
P 2150 6150
F 0 "U3" H 1950 6350 50  0000 L CNN
F 1 "LTV-814" H 2150 6350 50  0000 L CNN
F 2 "Opto-Devices:Optocoupler_SMD_LTV-817S" H 1950 5950 50  0001 L CIN
F 3 "" H 2175 6150 50  0000 L CNN
	1    2150 6150
	1    0    0    -1  
$EndComp
$Comp
L CONN_01X03 P1
U 1 1 58585975
P 7000 1250
F 0 "P1" H 7000 1450 50  0000 C CNN
F 1 "ZONE_1" V 7100 1250 50  0000 C CNN
F 2 "Connectors_Terminal_Blocks:TerminalBlock_Pheonix_PT-3.5mm_3pol" H 7000 1250 50  0001 C CNN
F 3 "" H 7000 1250 50  0000 C CNN
	1    7000 1250
	-1   0    0    1   
$EndComp
$Comp
L CONN_01X03 P2
U 1 1 58585AB8
P 7000 1800
F 0 "P2" H 7000 2000 50  0000 C CNN
F 1 "ZONE_2" V 7100 1800 50  0000 C CNN
F 2 "Connectors_Terminal_Blocks:TerminalBlock_Pheonix_PT-3.5mm_3pol" H 7000 1800 50  0001 C CNN
F 3 "" H 7000 1800 50  0000 C CNN
	1    7000 1800
	-1   0    0    1   
$EndComp
$Comp
L CONN_01X03 P3
U 1 1 58585B0F
P 7000 2300
F 0 "P3" H 7000 2500 50  0000 C CNN
F 1 "ZONE_3" V 7100 2300 50  0000 C CNN
F 2 "Connectors_Terminal_Blocks:TerminalBlock_Pheonix_PT-3.5mm_3pol" H 7000 2300 50  0001 C CNN
F 3 "" H 7000 2300 50  0000 C CNN
	1    7000 2300
	-1   0    0    1   
$EndComp
Text GLabel 7950 1350 2    60   BiDi ~ 0
C_1
Text GLabel 7950 1900 2    60   BiDi ~ 0
C_2
Text GLabel 7950 2400 2    60   BiDi ~ 0
C_3
Text GLabel 1000 2100 0    60   Output ~ 0
set_1
Text GLabel 1400 2000 0    60   Output ~ 0
reset_1
Text GLabel 1000 2300 0    60   Output ~ 0
set_2
Text GLabel 1400 2200 0    60   Output ~ 0
reset_2
Text GLabel 1400 2400 0    60   Output ~ 0
reset_3
$Comp
L ULN2003 U8
U 1 1 5858606E
P 6650 4350
F 0 "U8" H 6650 4450 50  0000 C CNN
F 1 "ULN2003LV" H 6650 4900 50  0000 C CNN
F 2 "Housings_SOIC:SOIC-16_3.9x9.9mm_Pitch1.27mm" H 6650 4350 50  0001 C CNN
F 3 "" H 6650 4350 50  0000 C CNN
	1    6650 4350
	1    0    0    -1  
$EndComp
$Comp
L +3.3V #PWR13
U 1 1 58587438
P 10350 3550
F 0 "#PWR13" H 10350 3400 50  0001 C CNN
F 1 "+3.3V" H 10350 3690 50  0000 C CNN
F 2 "" H 10350 3550 50  0000 C CNN
F 3 "" H 10350 3550 50  0000 C CNN
	1    10350 3550
	1    0    0    -1  
$EndComp
$Comp
L +3.3V #PWR10
U 1 1 58587A76
P 7650 4700
F 0 "#PWR10" H 7650 4550 50  0001 C CNN
F 1 "+3.3V" H 7650 4840 50  0000 C CNN
F 2 "" H 7650 4700 50  0000 C CNN
F 3 "" H 7650 4700 50  0000 C CNN
	1    7650 4700
	1    0    0    -1  
$EndComp
$Comp
L CONN_01X03 P4
U 1 1 58588E13
P 8950 1200
F 0 "P4" H 8950 1400 50  0000 C CNN
F 1 "W1_1" V 9050 1200 50  0000 C CNN
F 2 "Connectors_Terminal_Blocks:TerminalBlock_Pheonix_PT-3.5mm_3pol" H 8950 1200 50  0001 C CNN
F 3 "" H 8950 1200 50  0000 C CNN
	1    8950 1200
	-1   0    0    1   
$EndComp
$Comp
L CONN_01X03 P5
U 1 1 58588E99
P 8950 1750
F 0 "P5" H 8950 1950 50  0000 C CNN
F 1 "W1_2" V 9050 1750 50  0000 C CNN
F 2 "Connectors_Terminal_Blocks:TerminalBlock_Pheonix_PT-3.5mm_3pol" H 8950 1750 50  0001 C CNN
F 3 "" H 8950 1750 50  0000 C CNN
	1    8950 1750
	-1   0    0    1   
$EndComp
$Comp
L CONN_01X03 P6
U 1 1 58588F92
P 8950 2250
F 0 "P6" H 8950 2450 50  0000 C CNN
F 1 "W1_3" V 9050 2250 50  0000 C CNN
F 2 "Connectors_Terminal_Blocks:TerminalBlock_Pheonix_PT-3.5mm_3pol" H 8950 2250 50  0001 C CNN
F 3 "" H 8950 2250 50  0000 C CNN
	1    8950 2250
	-1   0    0    1   
$EndComp
Text GLabel 9700 1200 2    60   BiDi ~ 0
w1_1
Text GLabel 9700 1750 2    60   BiDi ~ 0
w1_2
Text GLabel 9700 2250 2    60   BiDi ~ 0
w1_3
$Comp
L +3.3V #PWR12
U 1 1 58586E68
P 9450 700
F 0 "#PWR12" H 9450 550 50  0001 C CNN
F 1 "+3.3V" H 9400 850 50  0000 C CNN
F 2 "" H 9450 700 50  0000 C CNN
F 3 "" H 9450 700 50  0000 C CNN
	1    9450 700 
	1    0    0    -1  
$EndComp
Text GLabel 3650 2300 2    60   BiDi ~ 0
w1_1
Text GLabel 4000 2400 2    60   BiDi ~ 0
w1_2
Text GLabel 3650 2500 2    60   BiDi ~ 0
w1_3
Text Notes 8500 3750 0    60   ~ 0
Latched Relays
Text Notes 5400 4750 0    60   ~ 0
Internal pull-down
Text Notes 5850 4600 0    60   ~ 0
NC
Text Notes 7350 4600 0    60   ~ 0
NC
Text Label 1600 5400 0    60   ~ 0
C_2_R
Text Label 1600 4600 0    60   ~ 0
C_1_R
Text Label 1650 6200 0    60   ~ 0
C_3_R
Text GLabel 1000 2500 0    60   Output ~ 0
set_3
Text Notes 3350 1800 0    60   ~ 0
NC (LED)
$Comp
L GND #PWR2
U 1 1 5859BE9D
P 1300 1450
F 0 "#PWR2" H 1300 1200 50  0001 C CNN
F 1 "GND" H 1300 1300 50  0000 C CNN
F 2 "" H 1300 1450 50  0000 C CNN
F 3 "" H 1300 1450 50  0000 C CNN
	1    1300 1450
	1    0    0    -1  
$EndComp
$Comp
L GND #PWR4
U 1 1 5859BF46
P 2650 4750
F 0 "#PWR4" H 2650 4500 50  0001 C CNN
F 1 "GND" H 2650 4600 50  0000 C CNN
F 2 "" H 2650 4750 50  0000 C CNN
F 3 "" H 2650 4750 50  0000 C CNN
	1    2650 4750
	1    0    0    -1  
$EndComp
$Comp
L GND #PWR5
U 1 1 5859C1DE
P 2650 5550
F 0 "#PWR5" H 2650 5300 50  0001 C CNN
F 1 "GND" H 2650 5400 50  0000 C CNN
F 2 "" H 2650 5550 50  0000 C CNN
F 3 "" H 2650 5550 50  0000 C CNN
	1    2650 5550
	1    0    0    -1  
$EndComp
$Comp
L GND #PWR6
U 1 1 5859C225
P 2650 6350
F 0 "#PWR6" H 2650 6100 50  0001 C CNN
F 1 "GND" H 2650 6200 50  0000 C CNN
F 2 "" H 2650 6350 50  0000 C CNN
F 3 "" H 2650 6350 50  0000 C CNN
	1    2650 6350
	1    0    0    -1  
$EndComp
$Comp
L GND #PWR11
U 1 1 5859C370
P 9350 2500
F 0 "#PWR11" H 9350 2250 50  0001 C CNN
F 1 "GND" H 9350 2350 50  0000 C CNN
F 2 "" H 9350 2500 50  0000 C CNN
F 3 "" H 9350 2500 50  0000 C CNN
	1    9350 2500
	1    0    0    -1  
$EndComp
$Comp
L R R7
U 1 1 5859B1BB
P 9600 1000
F 0 "R7" V 9680 1000 50  0000 C CNN
F 1 "10K" V 9600 1000 50  0000 C CNN
F 2 "Resistors_SMD:R_0805_HandSoldering" V 9530 1000 50  0001 C CNN
F 3 "" H 9600 1000 50  0000 C CNN
	1    9600 1000
	1    0    0    -1  
$EndComp
Wire Wire Line
	1750 1400 1300 1400
Wire Wire Line
	1300 1300 1750 1300
Wire Wire Line
	1300 1150 1300 1300
Wire Wire Line
	1750 1200 1500 1200
Wire Wire Line
	1500 1200 1500 1150
Wire Wire Line
	1300 1400 1300 1450
Wire Wire Line
	1350 4450 1850 4450
Wire Wire Line
	1350 5250 1850 5250
Wire Wire Line
	1350 6050 1850 6050
Wire Wire Line
	1750 5450 1850 5450
Wire Wire Line
	1750 6250 1850 6250
Wire Wire Line
	1750 4650 1850 4650
Wire Wire Line
	1350 4650 1450 4650
Wire Wire Line
	1350 5450 1450 5450
Wire Wire Line
	1350 6250 1450 6250
Wire Wire Line
	2450 5250 3350 5250
Wire Wire Line
	2450 6050 3350 6050
Wire Wire Line
	2950 6050 2950 5950
Connection ~ 2950 6050
Wire Wire Line
	2950 5250 2950 5150
Connection ~ 2950 5250
Wire Wire Line
	2450 6250 2650 6250
Wire Wire Line
	2650 6250 2650 6350
Wire Wire Line
	2450 5450 2650 5450
Wire Wire Line
	2450 4650 2650 4650
Wire Wire Line
	2650 4650 2650 4750
Wire Wire Line
	2650 5450 2650 5550
Wire Wire Line
	2450 4450 3350 4450
Wire Wire Line
	2950 4350 2950 4450
Connection ~ 2950 4450
Wire Wire Line
	7200 2300 7650 2300
Wire Wire Line
	7950 2400 7200 2400
Wire Wire Line
	7200 1900 7950 1900
Wire Wire Line
	7650 1800 7200 1800
Wire Wire Line
	7200 1350 7950 1350
Wire Wire Line
	7650 1250 7200 1250
Wire Wire Line
	3350 1900 3950 1900
Wire Wire Line
	9250 5850 9900 5850
Wire Wire Line
	7200 1150 7950 1150
Wire Wire Line
	7950 1700 7200 1700
Wire Wire Line
	7200 2200 7950 2200
Wire Wire Line
	1400 2000 1750 2000
Wire Wire Line
	1750 2100 1000 2100
Wire Wire Line
	1750 2300 1000 2300
Wire Wire Line
	1400 2400 1750 2400
Wire Wire Line
	9250 5750 9450 5750
Wire Wire Line
	9250 4150 9450 4150
Wire Wire Line
	9900 4250 9250 4250
Wire Wire Line
	9450 4950 9250 4950
Wire Wire Line
	9900 5050 9250 5050
Wire Wire Line
	5800 3950 6000 3950
Wire Wire Line
	6000 4050 5400 4050
Wire Wire Line
	5400 4250 6000 4250
Wire Wire Line
	6000 4150 5800 4150
Wire Wire Line
	5800 4350 6000 4350
Wire Wire Line
	6000 4450 5400 4450
Wire Wire Line
	7300 3950 8450 3950
Wire Wire Line
	8450 4400 8000 4400
Wire Wire Line
	8000 4400 8000 4050
Wire Wire Line
	8000 4050 7300 4050
Wire Wire Line
	8450 4750 7950 4750
Wire Wire Line
	7950 4750 7950 4150
Wire Wire Line
	7950 4150 7300 4150
Wire Wire Line
	7300 4250 7900 4250
Wire Wire Line
	7900 4250 7900 5200
Wire Wire Line
	7900 5200 8450 5200
Wire Wire Line
	7300 4350 7850 4350
Wire Wire Line
	7850 4350 7850 5550
Wire Wire Line
	7850 5550 8450 5550
Wire Wire Line
	8450 6000 7800 6000
Wire Wire Line
	7800 6000 7800 4450
Wire Wire Line
	7800 4450 7300 4450
Wire Wire Line
	10350 3550 10350 6000
Wire Wire Line
	10350 6000 9250 6000
Wire Wire Line
	9250 5550 10350 5550
Connection ~ 10350 5550
Wire Wire Line
	9250 5200 10350 5200
Connection ~ 10350 5200
Wire Wire Line
	9250 4750 10350 4750
Connection ~ 10350 4750
Wire Wire Line
	9250 4400 10350 4400
Connection ~ 10350 4400
Wire Wire Line
	9250 3950 10350 3950
Connection ~ 10350 3950
Wire Wire Line
	7650 4750 7300 4750
Wire Wire Line
	9700 1200 9150 1200
Wire Wire Line
	9700 2250 9150 2250
Wire Wire Line
	9150 1750 9700 1750
Wire Wire Line
	9150 1100 9450 1100
Wire Wire Line
	9450 700  9450 2150
Wire Wire Line
	9450 1650 9150 1650
Connection ~ 9450 1100
Wire Wire Line
	9450 2150 9150 2150
Connection ~ 9450 1650
Wire Wire Line
	9350 1300 9350 2500
Wire Wire Line
	9350 1300 9150 1300
Wire Wire Line
	9150 1850 9350 1850
Connection ~ 9350 1850
Wire Wire Line
	9150 2350 9350 2350
Connection ~ 9350 2350
Wire Wire Line
	3650 2300 3350 2300
Wire Wire Line
	3350 2400 4000 2400
Wire Wire Line
	3650 2500 3350 2500
Wire Wire Line
	3350 2000 3450 2000
Wire Wire Line
	3350 2100 3950 2100
Wire Wire Line
	7650 4750 7650 4700
Wire Wire Line
	1400 2200 1750 2200
Wire Wire Line
	1000 2500 1750 2500
Wire Wire Line
	9600 1150 9600 1200
Connection ~ 9600 1200
Wire Wire Line
	9600 850  9600 800 
Wire Wire Line
	9600 800  9450 800 
Connection ~ 9450 800 
$Comp
L R R8
U 1 1 5859BABC
P 9600 1550
F 0 "R8" V 9680 1550 50  0000 C CNN
F 1 "10K" V 9600 1550 50  0000 C CNN
F 2 "Resistors_SMD:R_0805_HandSoldering" V 9530 1550 50  0001 C CNN
F 3 "" H 9600 1550 50  0000 C CNN
	1    9600 1550
	1    0    0    -1  
$EndComp
$Comp
L R R9
U 1 1 5859BB28
P 9600 2050
F 0 "R9" V 9680 2050 50  0000 C CNN
F 1 "10K" V 9600 2050 50  0000 C CNN
F 2 "Resistors_SMD:R_0805_HandSoldering" V 9530 2050 50  0001 C CNN
F 3 "" H 9600 2050 50  0000 C CNN
	1    9600 2050
	1    0    0    1   
$EndComp
Wire Wire Line
	9600 1900 9600 1850
Wire Wire Line
	9600 1850 9450 1850
Connection ~ 9450 1850
Wire Wire Line
	9600 2200 9600 2250
Connection ~ 9600 2250
Wire Wire Line
	9600 1400 9600 1350
Wire Wire Line
	9600 1350 9450 1350
Connection ~ 9450 1350
Wire Wire Line
	9600 1700 9600 1750
Connection ~ 9600 1750
Text Notes 800  5400 0    60   ~ 0
24VAC
Text Notes 800  4600 0    60   ~ 0
24VAC
Text Notes 800  6200 0    60   ~ 0
24VAC
$EndSCHEMATC
